<?xml version="1.0" encoding="utf-8"?>
<!-- Svg Vector Icons : http://www.onlinewebfonts.com/icon -->
<!DOCTYPE svg PUBLIC "-//W3C//DTD SVG 1.1//EN" "http://www.w3.org/Graphics/SVG/1.1/DTD/svg11.dtd">
<svg version="1.1" xmlns="http://www.w3.org/2000/svg" xmlns:xlink="http://www.w3.org/1999/xlink" x="0px" y="0px" viewBox="0 0 1000 1000" enable-background="new 0 0 1000 1000" xml:space="preserve">
<metadata> Svg Vector Icons : http://www.onlinewebfonts.com/icon </metadata>
<g fill="#ffffff" ><path d="M939.7,550.3H60.3C32.5,550.3,10,527.8,10,500s22.5-50.3,50.3-50.3h879.4c27.8,0,50.3,22.5,50.3,50.3S967.5,550.3,939.7,550.3z"/><path d="M500,990c-27.8,0-50.3-22.5-50.3-50.3V60.3c0-27.8,22.5-50.3,50.3-50.3s50.3,22.5,50.3,50.3v879.4C550.3,967.5,527.8,990,500,990z"/></g>
</svg>